migration.boxever-ansible.log:Error: repository has at least one unnamed head: hg r33052
Error: repository has at least one unnamed head: hg r39499
Error: repository has at least one unnamed head: hg r33057
Error: repository has at least one unnamed head: hg r33052
Error: repository has at least one unnamed head: hg r33051
Error: repository has at least one unnamed head: hg r29091
Error: repository has at least one unnamed head: hg r18598
Error: repository has at least one unnamed head: hg r18590

migration.boxever-app-web.log:Error: repository has at least one unnamed head: hg r11612
Error: repository has at least one unnamed head: hg r11612
Error: repository has at least one unnamed head: hg r11604
Error: repository has at least one unnamed head: hg r11601
Error: repository has at least one unnamed head: hg r11600
Error: repository has at least one unnamed head: hg r11599
Error: repository has at least one unnamed head: hg r11598
Error: repository has at least one unnamed head: hg r11597
Error: repository has at least one unnamed head: hg r11191
Error: repository has at least one unnamed head: hg r11190
Error: repository has at least one unnamed head: hg r11189
Error: repository has at least one unnamed head: hg r11188
Error: repository has at least one unnamed head: hg r11186
Error: repository has at least one unnamed head: hg r11185
Error: repository has at least one unnamed head: hg r11184
Error: repository has at least one unnamed head: hg r11179
Error: repository has at least one unnamed head: hg r11175
Error: repository has at least one unnamed head: hg r11174
Error: repository has at least one unnamed head: hg r11172
Error: repository has at least one unnamed head: hg r11169
Error: repository has at least one unnamed head: hg r11168
Error: repository has at least one unnamed head: hg r5122

migration.boxever-cassandra.log:Error: repository has at least one unnamed head: hg r23880
Error: repository has at least one unnamed head: hg r23880
Error: repository has at least one unnamed head: hg r22032
Error: repository has at least one unnamed head: hg r17320
Error: repository has at least one unnamed head: hg r16242
Error: repository has at least one unnamed head: hg r14467
Error: repository has at least one unnamed head: hg r14063
Error: repository has at least one unnamed head: hg r14062
Error: repository has at least one unnamed head: hg r10444

migration.boxever-data-retention-legacy-redshift-job.log:Error: repository has at least one unnamed head: hg r304
Error: repository has at least one unnamed head: hg r304

migration.boxever-e2e-tests.log:Error: repository has at least one unnamed head: hg r2339
Error: repository has at least one unnamed head: hg r2339
Error: repository has at least one unnamed head: hg r59
Error: repository has at least one unnamed head: hg r58
Error: repository has at least one unnamed head: hg r57

migration.boxever-engage-analytics-emd-mock-producer.log:Error: repository has at least one unnamed head: hg r24
Error: repository has at least one unnamed head: hg r24

migration.boxever-experience-service.log:Error: repository has at least one unnamed head: hg r2
Error: repository has at least one unnamed head: hg r2

migration.boxever-external-services-mailgun.log:Error: repository has at least one unnamed head: hg r70
Error: repository has at least one unnamed head: hg r70

migration.boxever-external-services.log:Error: repository has at least one unnamed head: hg r678
OK

migration.boxever-insights-job.log:Error: repository has at least one unnamed head: hg r304
Error: repository has at least one unnamed head: hg r304

migration.boxever-orders-service.log:Error: repository has at least one unnamed head: hg r843
Error: repository has at least one unnamed head: hg r843
Error: repository has at least one unnamed head: hg r530

migration.boxever-tower-install.log:Error: repository has at least one unnamed head: hg r28
Error: repository has at least one unnamed head: hg r28
Error: repository has at least one unnamed head: hg r16
Error: repository has at least one unnamed head: hg r10

migration.volaris-integration.log:Error: repository has at least one unnamed head: hg r2
Error: repository has at least one unnamed head: hg r2

migration.boxever-model-definitions.log:OSError: [Errno 35] Resource temporarily unavailable
OK

migration.boxever-play-elasticsearch-retired.log:OSError: [Errno 35] Resource temporarily unavailable
OK

migration.boxever-redshift-transmute-job.log:IOError: [Errno 32] Broken pipe
OK

migration.boxever-stats-service.log:OSError: [Errno 35] Resource temporarily unavailable
OK

migration.boxever-validation.log:OSError: [Errno 35] Resource temporarily unavailable
OK
